%YAML 1.1
%TAG !u! tag:unity3d.com,2011:
--- !u!74 &7400000
AnimationClip:
  m_ObjectHideFlags: 0
  m_CorrespondingSourceObject: {fileID: 0}
  m_PrefabInstance: {fileID: 0}
  m_PrefabAsset: {fileID: 0}
  m_Name: RunCaballero
  serializedVersion: 6
  m_Legacy: 0
  m_Compressed: 0
  m_UseHighQualityCurve: 1
  m_RotationCurves: []
  m_CompressedRotationCurves: []
  m_EulerCurves: []
  m_PositionCurves: []
  m_ScaleCurves: []
  m_FloatCurves: []
  m_PPtrCurves:
  - curve:
    - time: 0
      value: {fileID: 21300000, guid: 749b0ba8791671e4c91320982387ee6e, type: 3}
    - time: 0.1
      value: {fileID: 21300000, guid: ba4b1e0064d2f534e968bd5573e2a1ea, type: 3}
    - time: 0.21666667
      value: {fileID: 21300000, guid: 75ed9dc6223f4a64b8dc904a2968c705, type: 3}
    - time: 0.31666666
      value: {fileID: 21300000, guid: d06d304dd29693f43b16ec1adc24aeb7, type: 3}
    - time: 0.41666666
      value: {fileID: 21300000, guid: 58e332ff9eea91e4286e0f39e7e7f5a4, type: 3}
    - time: 0.53333336
      value: {fileID: 21300000, guid: 16e5e926f8faad841aaced2de440889e, type: 3}
    - time: 0.6333333
      value: {fileID: 21300000, guid: b96183dd4e2af5d41a41a19f3be6db9d, type: 3}
    - time: 0.73333335
      value: {fileID: 21300000, guid: 0380c529fae741249b45392b9ba2f9bd, type: 3}
    - time: 0.85
      value: {fileID: 21300000, guid: 193a9cd39eec6de41bfaeef54c9d4ae7, type: 3}
    - time: 0.95
      value: {fileID: 21300000, guid: 937c6f7dd06d51f44b08c6de52006d9f, type: 3}
    - time: 1.05
      value: {fileID: 21300000, guid: 4dd06409e4383fc4fa33ecc96f0e15ff, type: 3}
    - time: 1.15
      value: {fileID: 21300000, guid: 1fe7c7fcf8cc9514685c5dadd89ae480, type: 3}
    - time: 1.2666667
      value: {fileID: 21300000, guid: 2199c04b897f5994397ff05b8eb053c3, type: 3}
    - time: 1.3666667
      value: {fileID: 21300000, guid: 9020a9027b20a4a4cbf11ac83fe1fc9f, type: 3}
    - time: 1.4666667
      value: {fileID: 21300000, guid: b00a5d33f7a9e2e49932b117774f30d8, type: 3}
    - time: 1.5833334
      value: {fileID: 21300000, guid: 9f50b3b3ddfa1774aaf47e76954cb970, type: 3}
    - time: 1.6833333
      value: {fileID: 21300000, guid: a2126fb774dbdfd46ae52a913514f980, type: 3}
    - time: 1.7833333
      value: {fileID: 21300000, guid: 1a8bbebac4b7278459699d564a3ac040, type: 3}
    - time: 1.9
      value: {fileID: 21300000, guid: c38782b4d63a17745935ce812ab07af1, type: 3}
    - time: 2
      value: {fileID: 21300000, guid: fa52d6fb418682a408576d7531e4d2c3, type: 3}
    attribute: m_Sprite
    path: 
    classID: 212
    script: {fileID: 0}
  m_SampleRate: 60
  m_WrapMode: 0
  m_Bounds:
    m_Center: {x: 0, y: 0, z: 0}
    m_Extent: {x: 0, y: 0, z: 0}
  m_ClipBindingConstant:
    genericBindings:
    - serializedVersion: 2
      path: 0
      attribute: 0
      script: {fileID: 0}
      typeID: 212
      customType: 23
      isPPtrCurve: 1
    pptrCurveMapping:
    - {fileID: 21300000, guid: 749b0ba8791671e4c91320982387ee6e, type: 3}
    - {fileID: 21300000, guid: ba4b1e0064d2f534e968bd5573e2a1ea, type: 3}
    - {fileID: 21300000, guid: 75ed9dc6223f4a64b8dc904a2968c705, type: 3}
    - {fileID: 21300000, guid: d06d304dd29693f43b16ec1adc24aeb7, type: 3}
    - {fileID: 21300000, guid: 58e332ff9eea91e4286e0f39e7e7f5a4, type: 3}
    - {fileID: 21300000, guid: 16e5e926f8faad841aaced2de440889e, type: 3}
    - {fileID: 21300000, guid: b96183dd4e2af5d41a41a19f3be6db9d, type: 3}
    - {fileID: 21300000, guid: 0380c529fae741249b45392b9ba2f9bd, type: 3}
    - {fileID: 21300000, guid: 193a9cd39eec6de41bfaeef54c9d4ae7, type: 3}
    - {fileID: 21300000, guid: 937c6f7dd06d51f44b08c6de52006d9f, type: 3}
    - {fileID: 21300000, guid: 4dd06409e4383fc4fa33ecc96f0e15ff, type: 3}
    - {fileID: 21300000, guid: 1fe7c7fcf8cc9514685c5dadd89ae480, type: 3}
    - {fileID: 21300000, guid: 2199c04b897f5994397ff05b8eb053c3, type: 3}
    - {fileID: 21300000, guid: 9020a9027b20a4a4cbf11ac83fe1fc9f, type: 3}
    - {fileID: 21300000, guid: b00a5d33f7a9e2e49932b117774f30d8, type: 3}
    - {fileID: 21300000, guid: 9f50b3b3ddfa1774aaf47e76954cb970, type: 3}
    - {fileID: 21300000, guid: a2126fb774dbdfd46ae52a913514f980, type: 3}
    - {fileID: 21300000, guid: 1a8bbebac4b7278459699d564a3ac040, type: 3}
    - {fileID: 21300000, guid: c38782b4d63a17745935ce812ab07af1, type: 3}
    - {fileID: 21300000, guid: fa52d6fb418682a408576d7531e4d2c3, type: 3}
  m_AnimationClipSettings:
    serializedVersion: 2
    m_AdditiveReferencePoseClip: {fileID: 0}
    m_AdditiveReferencePoseTime: 0
    m_StartTime: 0
    m_StopTime: 2.0166667
    m_OrientationOffsetY: 0
    m_Level: 0
    m_CycleOffset: 0
    m_HasAdditiveReferencePose: 0
    m_LoopTime: 1
    m_LoopBlend: 0
    m_LoopBlendOrientation: 0
    m_LoopBlendPositionY: 0
    m_LoopBlendPositionXZ: 0
    m_KeepOriginalOrientation: 0
    m_KeepOriginalPositionY: 1
    m_KeepOriginalPositionXZ: 0
    m_HeightFromFeet: 0
    m_Mirror: 0
  m_EditorCurves: []
  m_EulerEditorCurves: []
  m_HasGenericRootTransform: 0
  m_HasMotionFloatCurves: 0
  m_Events: []
