%YAML 1.1
%TAG !u! tag:unity3d.com,2011:
--- !u!114 &11400000
MonoBehaviour:
  m_ObjectHideFlags: 0
  m_CorrespondingSourceObject: {fileID: 0}
  m_PrefabInstance: {fileID: 0}
  m_PrefabAsset: {fileID: 0}
  m_GameObject: {fileID: 0}
  m_Enabled: 1
  m_EditorHideFlags: 0
  m_Script: {fileID: 11500000, guid: b0a0907d2eb7e884b8d9994bb8bd69aa, type: 3}
  m_Name: Arbol
  m_EditorClassIdentifier: 
  nresources: 10000
  sprite: {fileID: 21300000, guid: 689791d5534a2f547993a28536199776, type: 3}
  resource: 0
