%YAML 1.1
%TAG !u! tag:unity3d.com,2011:
--- !u!74 &7400000
AnimationClip:
  m_ObjectHideFlags: 0
  m_CorrespondingSourceObject: {fileID: 0}
  m_PrefabInstance: {fileID: 0}
  m_PrefabAsset: {fileID: 0}
  m_Name: IdleEscorpion
  serializedVersion: 6
  m_Legacy: 0
  m_Compressed: 0
  m_UseHighQualityCurve: 1
  m_RotationCurves: []
  m_CompressedRotationCurves: []
  m_EulerCurves: []
  m_PositionCurves: []
  m_ScaleCurves: []
  m_FloatCurves: []
  m_PPtrCurves:
  - curve:
    - time: 0
      value: {fileID: 21300000, guid: de70435ba81af5240928d300851d3668, type: 3}
    - time: 0.06666667
      value: {fileID: 21300000, guid: e1015ff2d2b1b824faff3557c6592eaa, type: 3}
    - time: 0.16666667
      value: {fileID: 21300000, guid: 5647aa5ffef1d6f4ab91bef362551dbe, type: 3}
    - time: 0.25
      value: {fileID: 21300000, guid: 5566a62a6a9b2394aa41d560d352a8aa, type: 3}
    - time: 0.31666666
      value: {fileID: 21300000, guid: 86379ef188f595448a6d066e301d5b8b, type: 3}
    - time: 0.4
      value: {fileID: 21300000, guid: e442d5f91c2b65642bff69604baebd7b, type: 3}
    - time: 0.46666667
      value: {fileID: 21300000, guid: e850e291a0438f649ae2f90cd9499ec7, type: 3}
    - time: 0.55
      value: {fileID: 21300000, guid: bd29d772ed86efd418af4e5e3f6f96da, type: 3}
    - time: 0.65
      value: {fileID: 21300000, guid: 3a571d432d2c8804d98d84e321e9f0e6, type: 3}
    - time: 0.71666664
      value: {fileID: 21300000, guid: f02173b12b439ac44b7586c27075e074, type: 3}
    - time: 0.8
      value: {fileID: 21300000, guid: 1b65602b86e6cfb4aa92760f166d41ab, type: 3}
    - time: 0.8833333
      value: {fileID: 21300000, guid: 1ae339e23bffee34c8d1b7f7019e00bf, type: 3}
    - time: 0.95
      value: {fileID: 21300000, guid: 0ea02229f22a6964a833d727860c0c9d, type: 3}
    - time: 1.0333333
      value: {fileID: 21300000, guid: 7d5d60381fb7c4748b5c243065e97f1a, type: 3}
    - time: 1.1
      value: {fileID: 21300000, guid: 4cb42165d894039438529ebb7d915b53, type: 3}
    - time: 1.2
      value: {fileID: 21300000, guid: e6c870cfa55c9f84582ce7ce9985eca4, type: 3}
    - time: 1.2833333
      value: {fileID: 21300000, guid: 42fa5059286149f4cacf3ae783f20906, type: 3}
    - time: 1.35
      value: {fileID: 21300000, guid: 3e62eef97b878954dac484279193ea72, type: 3}
    - time: 1.4333333
      value: {fileID: 21300000, guid: 39a8c1bc252cc764685e2444fb041656, type: 3}
    - time: 1.5
      value: {fileID: 21300000, guid: de70435ba81af5240928d300851d3668, type: 3}
    attribute: m_Sprite
    path: 
    classID: 212
    script: {fileID: 0}
  m_SampleRate: 60
  m_WrapMode: 0
  m_Bounds:
    m_Center: {x: 0, y: 0, z: 0}
    m_Extent: {x: 0, y: 0, z: 0}
  m_ClipBindingConstant:
    genericBindings:
    - serializedVersion: 2
      path: 0
      attribute: 0
      script: {fileID: 0}
      typeID: 212
      customType: 23
      isPPtrCurve: 1
    pptrCurveMapping:
    - {fileID: 21300000, guid: de70435ba81af5240928d300851d3668, type: 3}
    - {fileID: 21300000, guid: e1015ff2d2b1b824faff3557c6592eaa, type: 3}
    - {fileID: 21300000, guid: 5647aa5ffef1d6f4ab91bef362551dbe, type: 3}
    - {fileID: 21300000, guid: 5566a62a6a9b2394aa41d560d352a8aa, type: 3}
    - {fileID: 21300000, guid: 86379ef188f595448a6d066e301d5b8b, type: 3}
    - {fileID: 21300000, guid: e442d5f91c2b65642bff69604baebd7b, type: 3}
    - {fileID: 21300000, guid: e850e291a0438f649ae2f90cd9499ec7, type: 3}
    - {fileID: 21300000, guid: bd29d772ed86efd418af4e5e3f6f96da, type: 3}
    - {fileID: 21300000, guid: 3a571d432d2c8804d98d84e321e9f0e6, type: 3}
    - {fileID: 21300000, guid: f02173b12b439ac44b7586c27075e074, type: 3}
    - {fileID: 21300000, guid: 1b65602b86e6cfb4aa92760f166d41ab, type: 3}
    - {fileID: 21300000, guid: 1ae339e23bffee34c8d1b7f7019e00bf, type: 3}
    - {fileID: 21300000, guid: 0ea02229f22a6964a833d727860c0c9d, type: 3}
    - {fileID: 21300000, guid: 7d5d60381fb7c4748b5c243065e97f1a, type: 3}
    - {fileID: 21300000, guid: 4cb42165d894039438529ebb7d915b53, type: 3}
    - {fileID: 21300000, guid: e6c870cfa55c9f84582ce7ce9985eca4, type: 3}
    - {fileID: 21300000, guid: 42fa5059286149f4cacf3ae783f20906, type: 3}
    - {fileID: 21300000, guid: 3e62eef97b878954dac484279193ea72, type: 3}
    - {fileID: 21300000, guid: 39a8c1bc252cc764685e2444fb041656, type: 3}
    - {fileID: 21300000, guid: de70435ba81af5240928d300851d3668, type: 3}
  m_AnimationClipSettings:
    serializedVersion: 2
    m_AdditiveReferencePoseClip: {fileID: 0}
    m_AdditiveReferencePoseTime: 0
    m_StartTime: 0
    m_StopTime: 1.5166667
    m_OrientationOffsetY: 0
    m_Level: 0
    m_CycleOffset: 0
    m_HasAdditiveReferencePose: 0
    m_LoopTime: 1
    m_LoopBlend: 0
    m_LoopBlendOrientation: 0
    m_LoopBlendPositionY: 0
    m_LoopBlendPositionXZ: 0
    m_KeepOriginalOrientation: 0
    m_KeepOriginalPositionY: 1
    m_KeepOriginalPositionXZ: 0
    m_HeightFromFeet: 0
    m_Mirror: 0
  m_EditorCurves: []
  m_EulerEditorCurves: []
  m_HasGenericRootTransform: 0
  m_HasMotionFloatCurves: 0
  m_Events: []
