%YAML 1.1
%TAG !u! tag:unity3d.com,2011:
--- !u!74 &7400000
AnimationClip:
  m_ObjectHideFlags: 0
  m_CorrespondingSourceObject: {fileID: 0}
  m_PrefabInstance: {fileID: 0}
  m_PrefabAsset: {fileID: 0}
  m_Name: IdleCalvo
  serializedVersion: 6
  m_Legacy: 0
  m_Compressed: 0
  m_UseHighQualityCurve: 1
  m_RotationCurves: []
  m_CompressedRotationCurves: []
  m_EulerCurves: []
  m_PositionCurves: []
  m_ScaleCurves: []
  m_FloatCurves: []
  m_PPtrCurves:
  - curve:
    - time: 0
      value: {fileID: 21300000, guid: 65b23b4394a65ac4c8135d4d06c435fc, type: 3}
    - time: 0.083333336
      value: {fileID: 21300000, guid: 7c5102a2f9ca9cc49803df365b9e8ff8, type: 3}
    - time: 0.15
      value: {fileID: 21300000, guid: 73b7cda606037ea47bd2936227fb35ef, type: 3}
    - time: 0.23333333
      value: {fileID: 21300000, guid: 5f0bcec4a5266984690ec4d0ba5fa4a7, type: 3}
    - time: 0.31666666
      value: {fileID: 21300000, guid: 28929b74e918c8044803d3ab9dbeacbd, type: 3}
    - time: 0.4
      value: {fileID: 21300000, guid: 4e836c3ab991bd14599aeeeae0d6abed, type: 3}
    - time: 0.46666667
      value: {fileID: 21300000, guid: 7fbeac80bdedae14c924fa45d55874ee, type: 3}
    - time: 0.55
      value: {fileID: 21300000, guid: 7219bfa653bf1d049bb28a7d971626f7, type: 3}
    - time: 0.6333333
      value: {fileID: 21300000, guid: 248e04aa8a095184e89ecef41a19dbae, type: 3}
    - time: 0.71666664
      value: {fileID: 21300000, guid: 3d628220e22e9da438fb56e3646dab22, type: 3}
    - time: 0.78333336
      value: {fileID: 21300000, guid: 548bc467576bcfd459415e5e10457940, type: 3}
    - time: 0.8666667
      value: {fileID: 21300000, guid: 45f02409ec212254892faf849da36da0, type: 3}
    - time: 0.95
      value: {fileID: 21300000, guid: d7027f400bd1c96409359e3328ef2cec, type: 3}
    - time: 1.0333333
      value: {fileID: 21300000, guid: 49fc5d7be4d98794ea9c9af21d0fb4b7, type: 3}
    - time: 1.1
      value: {fileID: 21300000, guid: db36fe5359c36d64ebc4fabf8c0a84b1, type: 3}
    - time: 1.1833333
      value: {fileID: 21300000, guid: 362a98f8ffe2daa4cb4c4df978780bd1, type: 3}
    - time: 1.2666667
      value: {fileID: 21300000, guid: 36430c7d252ef79459aa2e76c2d5d438, type: 3}
    - time: 1.35
      value: {fileID: 21300000, guid: 345a9f52ff3dce041a02567563c11662, type: 3}
    - time: 1.4166666
      value: {fileID: 21300000, guid: 8af76731555e10a44a9b6594a4b78498, type: 3}
    - time: 1.5
      value: {fileID: 21300000, guid: ae264539ca9996c40b6e999f8a04664f, type: 3}
    attribute: m_Sprite
    path: 
    classID: 212
    script: {fileID: 0}
  m_SampleRate: 60
  m_WrapMode: 0
  m_Bounds:
    m_Center: {x: 0, y: 0, z: 0}
    m_Extent: {x: 0, y: 0, z: 0}
  m_ClipBindingConstant:
    genericBindings:
    - serializedVersion: 2
      path: 0
      attribute: 0
      script: {fileID: 0}
      typeID: 212
      customType: 23
      isPPtrCurve: 1
    pptrCurveMapping:
    - {fileID: 21300000, guid: 65b23b4394a65ac4c8135d4d06c435fc, type: 3}
    - {fileID: 21300000, guid: 7c5102a2f9ca9cc49803df365b9e8ff8, type: 3}
    - {fileID: 21300000, guid: 73b7cda606037ea47bd2936227fb35ef, type: 3}
    - {fileID: 21300000, guid: 5f0bcec4a5266984690ec4d0ba5fa4a7, type: 3}
    - {fileID: 21300000, guid: 28929b74e918c8044803d3ab9dbeacbd, type: 3}
    - {fileID: 21300000, guid: 4e836c3ab991bd14599aeeeae0d6abed, type: 3}
    - {fileID: 21300000, guid: 7fbeac80bdedae14c924fa45d55874ee, type: 3}
    - {fileID: 21300000, guid: 7219bfa653bf1d049bb28a7d971626f7, type: 3}
    - {fileID: 21300000, guid: 248e04aa8a095184e89ecef41a19dbae, type: 3}
    - {fileID: 21300000, guid: 3d628220e22e9da438fb56e3646dab22, type: 3}
    - {fileID: 21300000, guid: 548bc467576bcfd459415e5e10457940, type: 3}
    - {fileID: 21300000, guid: 45f02409ec212254892faf849da36da0, type: 3}
    - {fileID: 21300000, guid: d7027f400bd1c96409359e3328ef2cec, type: 3}
    - {fileID: 21300000, guid: 49fc5d7be4d98794ea9c9af21d0fb4b7, type: 3}
    - {fileID: 21300000, guid: db36fe5359c36d64ebc4fabf8c0a84b1, type: 3}
    - {fileID: 21300000, guid: 362a98f8ffe2daa4cb4c4df978780bd1, type: 3}
    - {fileID: 21300000, guid: 36430c7d252ef79459aa2e76c2d5d438, type: 3}
    - {fileID: 21300000, guid: 345a9f52ff3dce041a02567563c11662, type: 3}
    - {fileID: 21300000, guid: 8af76731555e10a44a9b6594a4b78498, type: 3}
    - {fileID: 21300000, guid: ae264539ca9996c40b6e999f8a04664f, type: 3}
  m_AnimationClipSettings:
    serializedVersion: 2
    m_AdditiveReferencePoseClip: {fileID: 0}
    m_AdditiveReferencePoseTime: 0
    m_StartTime: 0
    m_StopTime: 1.5166667
    m_OrientationOffsetY: 0
    m_Level: 0
    m_CycleOffset: 0
    m_HasAdditiveReferencePose: 0
    m_LoopTime: 1
    m_LoopBlend: 0
    m_LoopBlendOrientation: 0
    m_LoopBlendPositionY: 0
    m_LoopBlendPositionXZ: 0
    m_KeepOriginalOrientation: 0
    m_KeepOriginalPositionY: 1
    m_KeepOriginalPositionXZ: 0
    m_HeightFromFeet: 0
    m_Mirror: 0
  m_EditorCurves: []
  m_EulerEditorCurves: []
  m_HasGenericRootTransform: 0
  m_HasMotionFloatCurves: 0
  m_Events: []
