%YAML 1.1
%TAG !u! tag:unity3d.com,2011:
--- !u!1 &11020961891845079
GameObject:
  m_ObjectHideFlags: 0
  m_CorrespondingSourceObject: {fileID: 0}
  m_PrefabInstance: {fileID: 0}
  m_PrefabAsset: {fileID: 0}
  serializedVersion: 6
  m_Component:
  - component: {fileID: 613265825774753313}
  - component: {fileID: 5409664043736851783}
  m_Layer: 0
  m_Name: Paleta
  m_TagString: Untagged
  m_Icon: {fileID: 0}
  m_NavMeshLayer: 0
  m_StaticEditorFlags: 0
  m_IsActive: 1
--- !u!4 &613265825774753313
Transform:
  m_ObjectHideFlags: 0
  m_CorrespondingSourceObject: {fileID: 0}
  m_PrefabInstance: {fileID: 0}
  m_PrefabAsset: {fileID: 0}
  m_GameObject: {fileID: 11020961891845079}
  m_LocalRotation: {x: 0, y: 0, z: 0, w: 1}
  m_LocalPosition: {x: 0, y: 0, z: 0}
  m_LocalScale: {x: 1, y: 1, z: 1}
  m_ConstrainProportionsScale: 0
  m_Children:
  - {fileID: 8642984486912480893}
  m_Father: {fileID: 0}
  m_RootOrder: 0
  m_LocalEulerAnglesHint: {x: 0, y: 0, z: 0}
--- !u!156049354 &5409664043736851783
Grid:
  m_ObjectHideFlags: 0
  m_CorrespondingSourceObject: {fileID: 0}
  m_PrefabInstance: {fileID: 0}
  m_PrefabAsset: {fileID: 0}
  m_GameObject: {fileID: 11020961891845079}
  m_Enabled: 1
  m_CellSize: {x: 1, y: 1.28, z: 0}
  m_CellGap: {x: 0, y: 0, z: 0}
  m_CellLayout: 0
  m_CellSwizzle: 0
--- !u!1 &6894762012322711951
GameObject:
  m_ObjectHideFlags: 0
  m_CorrespondingSourceObject: {fileID: 0}
  m_PrefabInstance: {fileID: 0}
  m_PrefabAsset: {fileID: 0}
  serializedVersion: 6
  m_Component:
  - component: {fileID: 8642984486912480893}
  - component: {fileID: 776067716492166047}
  - component: {fileID: 1466853683180265967}
  m_Layer: 0
  m_Name: Layer1
  m_TagString: Untagged
  m_Icon: {fileID: 0}
  m_NavMeshLayer: 0
  m_StaticEditorFlags: 0
  m_IsActive: 1
--- !u!4 &8642984486912480893
Transform:
  m_ObjectHideFlags: 0
  m_CorrespondingSourceObject: {fileID: 0}
  m_PrefabInstance: {fileID: 0}
  m_PrefabAsset: {fileID: 0}
  m_GameObject: {fileID: 6894762012322711951}
  m_LocalRotation: {x: -0, y: -0, z: -0, w: 1}
  m_LocalPosition: {x: 0, y: 0, z: 0}
  m_LocalScale: {x: 1, y: 1, z: 1}
  m_ConstrainProportionsScale: 0
  m_Children: []
  m_Father: {fileID: 613265825774753313}
  m_RootOrder: 0
  m_LocalEulerAnglesHint: {x: 0, y: 0, z: 0}
--- !u!1839735485 &776067716492166047
Tilemap:
  m_ObjectHideFlags: 0
  m_CorrespondingSourceObject: {fileID: 0}
  m_PrefabInstance: {fileID: 0}
  m_PrefabAsset: {fileID: 0}
  m_GameObject: {fileID: 6894762012322711951}
  m_Enabled: 1
  m_Tiles:
  - first: {x: -1, y: -7, z: 0}
    second:
      serializedVersion: 2
      m_TileIndex: 56
      m_TileSpriteIndex: 56
      m_TileMatrixIndex: 0
      m_TileColorIndex: 0
      m_TileObjectToInstantiateIndex: 65535
      dummyAlignment: 0
      m_AllTileFlags: 1073741825
  - first: {x: 0, y: -7, z: 0}
    second:
      serializedVersion: 2
      m_TileIndex: 57
      m_TileSpriteIndex: 57
      m_TileMatrixIndex: 0
      m_TileColorIndex: 0
      m_TileObjectToInstantiateIndex: 65535
      dummyAlignment: 0
      m_AllTileFlags: 1073741825
  - first: {x: 1, y: -7, z: 0}
    second:
      serializedVersion: 2
      m_TileIndex: 58
      m_TileSpriteIndex: 58
      m_TileMatrixIndex: 0
      m_TileColorIndex: 0
      m_TileObjectToInstantiateIndex: 65535
      dummyAlignment: 0
      m_AllTileFlags: 1073741825
  - first: {x: 2, y: -7, z: 0}
    second:
      serializedVersion: 2
      m_TileIndex: 59
      m_TileSpriteIndex: 59
      m_TileMatrixIndex: 0
      m_TileColorIndex: 0
      m_TileObjectToInstantiateIndex: 65535
      dummyAlignment: 0
      m_AllTileFlags: 1073741825
  - first: {x: 3, y: -7, z: 0}
    second:
      serializedVersion: 2
      m_TileIndex: 60
      m_TileSpriteIndex: 60
      m_TileMatrixIndex: 0
      m_TileColorIndex: 0
      m_TileObjectToInstantiateIndex: 65535
      dummyAlignment: 0
      m_AllTileFlags: 1073741825
  - first: {x: 4, y: -7, z: 0}
    second:
      serializedVersion: 2
      m_TileIndex: 61
      m_TileSpriteIndex: 61
      m_TileMatrixIndex: 0
      m_TileColorIndex: 0
      m_TileObjectToInstantiateIndex: 65535
      dummyAlignment: 0
      m_AllTileFlags: 1073741825
  - first: {x: 5, y: -7, z: 0}
    second:
      serializedVersion: 2
      m_TileIndex: 62
      m_TileSpriteIndex: 62
      m_TileMatrixIndex: 0
      m_TileColorIndex: 0
      m_TileObjectToInstantiateIndex: 65535
      dummyAlignment: 0
      m_AllTileFlags: 1073741825
  - first: {x: 6, y: -7, z: 0}
    second:
      serializedVersion: 2
      m_TileIndex: 63
      m_TileSpriteIndex: 63
      m_TileMatrixIndex: 0
      m_TileColorIndex: 0
      m_TileObjectToInstantiateIndex: 65535
      dummyAlignment: 0
      m_AllTileFlags: 1073741825
  - first: {x: -1, y: -6, z: 0}
    second:
      serializedVersion: 2
      m_TileIndex: 48
      m_TileSpriteIndex: 48
      m_TileMatrixIndex: 0
      m_TileColorIndex: 0
      m_TileObjectToInstantiateIndex: 65535
      dummyAlignment: 0
      m_AllTileFlags: 1073741825
  - first: {x: 0, y: -6, z: 0}
    second:
      serializedVersion: 2
      m_TileIndex: 49
      m_TileSpriteIndex: 49
      m_TileMatrixIndex: 0
      m_TileColorIndex: 0
      m_TileObjectToInstantiateIndex: 65535
      dummyAlignment: 0
      m_AllTileFlags: 1073741825
  - first: {x: 1, y: -6, z: 0}
    second:
      serializedVersion: 2
      m_TileIndex: 50
      m_TileSpriteIndex: 50
      m_TileMatrixIndex: 0
      m_TileColorIndex: 0
      m_TileObjectToInstantiateIndex: 65535
      dummyAlignment: 0
      m_AllTileFlags: 1073741825
  - first: {x: 2, y: -6, z: 0}
    second:
      serializedVersion: 2
      m_TileIndex: 51
      m_TileSpriteIndex: 51
      m_TileMatrixIndex: 0
      m_TileColorIndex: 0
      m_TileObjectToInstantiateIndex: 65535
      dummyAlignment: 0
      m_AllTileFlags: 1073741825
  - first: {x: 3, y: -6, z: 0}
    second:
      serializedVersion: 2
      m_TileIndex: 52
      m_TileSpriteIndex: 52
      m_TileMatrixIndex: 0
      m_TileColorIndex: 0
      m_TileObjectToInstantiateIndex: 65535
      dummyAlignment: 0
      m_AllTileFlags: 1073741825
  - first: {x: 4, y: -6, z: 0}
    second:
      serializedVersion: 2
      m_TileIndex: 53
      m_TileSpriteIndex: 53
      m_TileMatrixIndex: 0
      m_TileColorIndex: 0
      m_TileObjectToInstantiateIndex: 65535
      dummyAlignment: 0
      m_AllTileFlags: 1073741825
  - first: {x: 5, y: -6, z: 0}
    second:
      serializedVersion: 2
      m_TileIndex: 54
      m_TileSpriteIndex: 54
      m_TileMatrixIndex: 0
      m_TileColorIndex: 0
      m_TileObjectToInstantiateIndex: 65535
      dummyAlignment: 0
      m_AllTileFlags: 1073741825
  - first: {x: 6, y: -6, z: 0}
    second:
      serializedVersion: 2
      m_TileIndex: 55
      m_TileSpriteIndex: 55
      m_TileMatrixIndex: 0
      m_TileColorIndex: 0
      m_TileObjectToInstantiateIndex: 65535
      dummyAlignment: 0
      m_AllTileFlags: 1073741825
  - first: {x: -1, y: -5, z: 0}
    second:
      serializedVersion: 2
      m_TileIndex: 40
      m_TileSpriteIndex: 40
      m_TileMatrixIndex: 0
      m_TileColorIndex: 0
      m_TileObjectToInstantiateIndex: 65535
      dummyAlignment: 0
      m_AllTileFlags: 1073741825
  - first: {x: 0, y: -5, z: 0}
    second:
      serializedVersion: 2
      m_TileIndex: 41
      m_TileSpriteIndex: 41
      m_TileMatrixIndex: 0
      m_TileColorIndex: 0
      m_TileObjectToInstantiateIndex: 65535
      dummyAlignment: 0
      m_AllTileFlags: 1073741825
  - first: {x: 1, y: -5, z: 0}
    second:
      serializedVersion: 2
      m_TileIndex: 42
      m_TileSpriteIndex: 42
      m_TileMatrixIndex: 0
      m_TileColorIndex: 0
      m_TileObjectToInstantiateIndex: 65535
      dummyAlignment: 0
      m_AllTileFlags: 1073741825
  - first: {x: 2, y: -5, z: 0}
    second:
      serializedVersion: 2
      m_TileIndex: 43
      m_TileSpriteIndex: 43
      m_TileMatrixIndex: 0
      m_TileColorIndex: 0
      m_TileObjectToInstantiateIndex: 65535
      dummyAlignment: 0
      m_AllTileFlags: 1073741825
  - first: {x: 3, y: -5, z: 0}
    second:
      serializedVersion: 2
      m_TileIndex: 44
      m_TileSpriteIndex: 44
      m_TileMatrixIndex: 0
      m_TileColorIndex: 0
      m_TileObjectToInstantiateIndex: 65535
      dummyAlignment: 0
      m_AllTileFlags: 1073741825
  - first: {x: 4, y: -5, z: 0}
    second:
      serializedVersion: 2
      m_TileIndex: 45
      m_TileSpriteIndex: 45
      m_TileMatrixIndex: 0
      m_TileColorIndex: 0
      m_TileObjectToInstantiateIndex: 65535
      dummyAlignment: 0
      m_AllTileFlags: 1073741825
  - first: {x: 5, y: -5, z: 0}
    second:
      serializedVersion: 2
      m_TileIndex: 46
      m_TileSpriteIndex: 46
      m_TileMatrixIndex: 0
      m_TileColorIndex: 0
      m_TileObjectToInstantiateIndex: 65535
      dummyAlignment: 0
      m_AllTileFlags: 1073741825
  - first: {x: 6, y: -5, z: 0}
    second:
      serializedVersion: 2
      m_TileIndex: 47
      m_TileSpriteIndex: 47
      m_TileMatrixIndex: 0
      m_TileColorIndex: 0
      m_TileObjectToInstantiateIndex: 65535
      dummyAlignment: 0
      m_AllTileFlags: 1073741825
  - first: {x: -1, y: -4, z: 0}
    second:
      serializedVersion: 2
      m_TileIndex: 32
      m_TileSpriteIndex: 32
      m_TileMatrixIndex: 0
      m_TileColorIndex: 0
      m_TileObjectToInstantiateIndex: 65535
      dummyAlignment: 0
      m_AllTileFlags: 1073741825
  - first: {x: 0, y: -4, z: 0}
    second:
      serializedVersion: 2
      m_TileIndex: 33
      m_TileSpriteIndex: 33
      m_TileMatrixIndex: 0
      m_TileColorIndex: 0
      m_TileObjectToInstantiateIndex: 65535
      dummyAlignment: 0
      m_AllTileFlags: 1073741825
  - first: {x: 1, y: -4, z: 0}
    second:
      serializedVersion: 2
      m_TileIndex: 34
      m_TileSpriteIndex: 34
      m_TileMatrixIndex: 0
      m_TileColorIndex: 0
      m_TileObjectToInstantiateIndex: 65535
      dummyAlignment: 0
      m_AllTileFlags: 1073741825
  - first: {x: 2, y: -4, z: 0}
    second:
      serializedVersion: 2
      m_TileIndex: 35
      m_TileSpriteIndex: 35
      m_TileMatrixIndex: 0
      m_TileColorIndex: 0
      m_TileObjectToInstantiateIndex: 65535
      dummyAlignment: 0
      m_AllTileFlags: 1073741825
  - first: {x: 3, y: -4, z: 0}
    second:
      serializedVersion: 2
      m_TileIndex: 36
      m_TileSpriteIndex: 36
      m_TileMatrixIndex: 0
      m_TileColorIndex: 0
      m_TileObjectToInstantiateIndex: 65535
      dummyAlignment: 0
      m_AllTileFlags: 1073741825
  - first: {x: 4, y: -4, z: 0}
    second:
      serializedVersion: 2
      m_TileIndex: 37
      m_TileSpriteIndex: 37
      m_TileMatrixIndex: 0
      m_TileColorIndex: 0
      m_TileObjectToInstantiateIndex: 65535
      dummyAlignment: 0
      m_AllTileFlags: 1073741825
  - first: {x: 5, y: -4, z: 0}
    second:
      serializedVersion: 2
      m_TileIndex: 38
      m_TileSpriteIndex: 38
      m_TileMatrixIndex: 0
      m_TileColorIndex: 0
      m_TileObjectToInstantiateIndex: 65535
      dummyAlignment: 0
      m_AllTileFlags: 1073741825
  - first: {x: 6, y: -4, z: 0}
    second:
      serializedVersion: 2
      m_TileIndex: 39
      m_TileSpriteIndex: 39
      m_TileMatrixIndex: 0
      m_TileColorIndex: 0
      m_TileObjectToInstantiateIndex: 65535
      dummyAlignment: 0
      m_AllTileFlags: 1073741825
  - first: {x: -1, y: -3, z: 0}
    second:
      serializedVersion: 2
      m_TileIndex: 24
      m_TileSpriteIndex: 24
      m_TileMatrixIndex: 0
      m_TileColorIndex: 0
      m_TileObjectToInstantiateIndex: 65535
      dummyAlignment: 0
      m_AllTileFlags: 1073741825
  - first: {x: 0, y: -3, z: 0}
    second:
      serializedVersion: 2
      m_TileIndex: 25
      m_TileSpriteIndex: 25
      m_TileMatrixIndex: 0
      m_TileColorIndex: 0
      m_TileObjectToInstantiateIndex: 65535
      dummyAlignment: 0
      m_AllTileFlags: 1073741825
  - first: {x: 1, y: -3, z: 0}
    second:
      serializedVersion: 2
      m_TileIndex: 26
      m_TileSpriteIndex: 26
      m_TileMatrixIndex: 0
      m_TileColorIndex: 0
      m_TileObjectToInstantiateIndex: 65535
      dummyAlignment: 0
      m_AllTileFlags: 1073741825
  - first: {x: 2, y: -3, z: 0}
    second:
      serializedVersion: 2
      m_TileIndex: 27
      m_TileSpriteIndex: 27
      m_TileMatrixIndex: 0
      m_TileColorIndex: 0
      m_TileObjectToInstantiateIndex: 65535
      dummyAlignment: 0
      m_AllTileFlags: 1073741825
  - first: {x: 3, y: -3, z: 0}
    second:
      serializedVersion: 2
      m_TileIndex: 28
      m_TileSpriteIndex: 28
      m_TileMatrixIndex: 0
      m_TileColorIndex: 0
      m_TileObjectToInstantiateIndex: 65535
      dummyAlignment: 0
      m_AllTileFlags: 1073741825
  - first: {x: 4, y: -3, z: 0}
    second:
      serializedVersion: 2
      m_TileIndex: 29
      m_TileSpriteIndex: 29
      m_TileMatrixIndex: 0
      m_TileColorIndex: 0
      m_TileObjectToInstantiateIndex: 65535
      dummyAlignment: 0
      m_AllTileFlags: 1073741825
  - first: {x: 5, y: -3, z: 0}
    second:
      serializedVersion: 2
      m_TileIndex: 30
      m_TileSpriteIndex: 30
      m_TileMatrixIndex: 0
      m_TileColorIndex: 0
      m_TileObjectToInstantiateIndex: 65535
      dummyAlignment: 0
      m_AllTileFlags: 1073741825
  - first: {x: 6, y: -3, z: 0}
    second:
      serializedVersion: 2
      m_TileIndex: 31
      m_TileSpriteIndex: 31
      m_TileMatrixIndex: 0
      m_TileColorIndex: 0
      m_TileObjectToInstantiateIndex: 65535
      dummyAlignment: 0
      m_AllTileFlags: 1073741825
  - first: {x: -1, y: -2, z: 0}
    second:
      serializedVersion: 2
      m_TileIndex: 16
      m_TileSpriteIndex: 16
      m_TileMatrixIndex: 0
      m_TileColorIndex: 0
      m_TileObjectToInstantiateIndex: 65535
      dummyAlignment: 0
      m_AllTileFlags: 1073741825
  - first: {x: 0, y: -2, z: 0}
    second:
      serializedVersion: 2
      m_TileIndex: 17
      m_TileSpriteIndex: 17
      m_TileMatrixIndex: 0
      m_TileColorIndex: 0
      m_TileObjectToInstantiateIndex: 65535
      dummyAlignment: 0
      m_AllTileFlags: 1073741825
  - first: {x: 1, y: -2, z: 0}
    second:
      serializedVersion: 2
      m_TileIndex: 18
      m_TileSpriteIndex: 18
      m_TileMatrixIndex: 0
      m_TileColorIndex: 0
      m_TileObjectToInstantiateIndex: 65535
      dummyAlignment: 0
      m_AllTileFlags: 1073741825
  - first: {x: 2, y: -2, z: 0}
    second:
      serializedVersion: 2
      m_TileIndex: 19
      m_TileSpriteIndex: 19
      m_TileMatrixIndex: 0
      m_TileColorIndex: 0
      m_TileObjectToInstantiateIndex: 65535
      dummyAlignment: 0
      m_AllTileFlags: 1073741825
  - first: {x: 3, y: -2, z: 0}
    second:
      serializedVersion: 2
      m_TileIndex: 20
      m_TileSpriteIndex: 20
      m_TileMatrixIndex: 0
      m_TileColorIndex: 0
      m_TileObjectToInstantiateIndex: 65535
      dummyAlignment: 0
      m_AllTileFlags: 1073741825
  - first: {x: 4, y: -2, z: 0}
    second:
      serializedVersion: 2
      m_TileIndex: 21
      m_TileSpriteIndex: 21
      m_TileMatrixIndex: 0
      m_TileColorIndex: 0
      m_TileObjectToInstantiateIndex: 65535
      dummyAlignment: 0
      m_AllTileFlags: 1073741825
  - first: {x: 5, y: -2, z: 0}
    second:
      serializedVersion: 2
      m_TileIndex: 22
      m_TileSpriteIndex: 22
      m_TileMatrixIndex: 0
      m_TileColorIndex: 0
      m_TileObjectToInstantiateIndex: 65535
      dummyAlignment: 0
      m_AllTileFlags: 1073741825
  - first: {x: 6, y: -2, z: 0}
    second:
      serializedVersion: 2
      m_TileIndex: 23
      m_TileSpriteIndex: 23
      m_TileMatrixIndex: 0
      m_TileColorIndex: 0
      m_TileObjectToInstantiateIndex: 65535
      dummyAlignment: 0
      m_AllTileFlags: 1073741825
  - first: {x: -1, y: -1, z: 0}
    second:
      serializedVersion: 2
      m_TileIndex: 8
      m_TileSpriteIndex: 8
      m_TileMatrixIndex: 0
      m_TileColorIndex: 0
      m_TileObjectToInstantiateIndex: 65535
      dummyAlignment: 0
      m_AllTileFlags: 1073741825
  - first: {x: 0, y: -1, z: 0}
    second:
      serializedVersion: 2
      m_TileIndex: 9
      m_TileSpriteIndex: 9
      m_TileMatrixIndex: 0
      m_TileColorIndex: 0
      m_TileObjectToInstantiateIndex: 65535
      dummyAlignment: 0
      m_AllTileFlags: 1073741825
  - first: {x: 1, y: -1, z: 0}
    second:
      serializedVersion: 2
      m_TileIndex: 10
      m_TileSpriteIndex: 10
      m_TileMatrixIndex: 0
      m_TileColorIndex: 0
      m_TileObjectToInstantiateIndex: 65535
      dummyAlignment: 0
      m_AllTileFlags: 1073741825
  - first: {x: 2, y: -1, z: 0}
    second:
      serializedVersion: 2
      m_TileIndex: 11
      m_TileSpriteIndex: 11
      m_TileMatrixIndex: 0
      m_TileColorIndex: 0
      m_TileObjectToInstantiateIndex: 65535
      dummyAlignment: 0
      m_AllTileFlags: 1073741825
  - first: {x: 3, y: -1, z: 0}
    second:
      serializedVersion: 2
      m_TileIndex: 12
      m_TileSpriteIndex: 12
      m_TileMatrixIndex: 0
      m_TileColorIndex: 0
      m_TileObjectToInstantiateIndex: 65535
      dummyAlignment: 0
      m_AllTileFlags: 1073741825
  - first: {x: 4, y: -1, z: 0}
    second:
      serializedVersion: 2
      m_TileIndex: 13
      m_TileSpriteIndex: 13
      m_TileMatrixIndex: 0
      m_TileColorIndex: 0
      m_TileObjectToInstantiateIndex: 65535
      dummyAlignment: 0
      m_AllTileFlags: 1073741825
  - first: {x: 5, y: -1, z: 0}
    second:
      serializedVersion: 2
      m_TileIndex: 14
      m_TileSpriteIndex: 14
      m_TileMatrixIndex: 0
      m_TileColorIndex: 0
      m_TileObjectToInstantiateIndex: 65535
      dummyAlignment: 0
      m_AllTileFlags: 1073741825
  - first: {x: 6, y: -1, z: 0}
    second:
      serializedVersion: 2
      m_TileIndex: 15
      m_TileSpriteIndex: 15
      m_TileMatrixIndex: 0
      m_TileColorIndex: 0
      m_TileObjectToInstantiateIndex: 65535
      dummyAlignment: 0
      m_AllTileFlags: 1073741825
  - first: {x: -1, y: 0, z: 0}
    second:
      serializedVersion: 2
      m_TileIndex: 0
      m_TileSpriteIndex: 0
      m_TileMatrixIndex: 0
      m_TileColorIndex: 0
      m_TileObjectToInstantiateIndex: 65535
      dummyAlignment: 0
      m_AllTileFlags: 1073741825
  - first: {x: 0, y: 0, z: 0}
    second:
      serializedVersion: 2
      m_TileIndex: 1
      m_TileSpriteIndex: 1
      m_TileMatrixIndex: 0
      m_TileColorIndex: 0
      m_TileObjectToInstantiateIndex: 65535
      dummyAlignment: 0
      m_AllTileFlags: 1073741825
  - first: {x: 1, y: 0, z: 0}
    second:
      serializedVersion: 2
      m_TileIndex: 2
      m_TileSpriteIndex: 2
      m_TileMatrixIndex: 0
      m_TileColorIndex: 0
      m_TileObjectToInstantiateIndex: 65535
      dummyAlignment: 0
      m_AllTileFlags: 1073741825
  - first: {x: 2, y: 0, z: 0}
    second:
      serializedVersion: 2
      m_TileIndex: 3
      m_TileSpriteIndex: 3
      m_TileMatrixIndex: 0
      m_TileColorIndex: 0
      m_TileObjectToInstantiateIndex: 65535
      dummyAlignment: 0
      m_AllTileFlags: 1073741825
  - first: {x: 3, y: 0, z: 0}
    second:
      serializedVersion: 2
      m_TileIndex: 4
      m_TileSpriteIndex: 4
      m_TileMatrixIndex: 0
      m_TileColorIndex: 0
      m_TileObjectToInstantiateIndex: 65535
      dummyAlignment: 0
      m_AllTileFlags: 1073741825
  - first: {x: 4, y: 0, z: 0}
    second:
      serializedVersion: 2
      m_TileIndex: 5
      m_TileSpriteIndex: 5
      m_TileMatrixIndex: 0
      m_TileColorIndex: 0
      m_TileObjectToInstantiateIndex: 65535
      dummyAlignment: 0
      m_AllTileFlags: 1073741825
  - first: {x: 5, y: 0, z: 0}
    second:
      serializedVersion: 2
      m_TileIndex: 6
      m_TileSpriteIndex: 6
      m_TileMatrixIndex: 0
      m_TileColorIndex: 0
      m_TileObjectToInstantiateIndex: 65535
      dummyAlignment: 0
      m_AllTileFlags: 1073741825
  - first: {x: 6, y: 0, z: 0}
    second:
      serializedVersion: 2
      m_TileIndex: 7
      m_TileSpriteIndex: 7
      m_TileMatrixIndex: 0
      m_TileColorIndex: 0
      m_TileObjectToInstantiateIndex: 65535
      dummyAlignment: 0
      m_AllTileFlags: 1073741825
  m_AnimatedTiles: {}
  m_TileAssetArray:
  - m_RefCount: 1
    m_Data: {fileID: 11400000, guid: 4ac681ddbe819b24388ba033d9042acf, type: 2}
  - m_RefCount: 1
    m_Data: {fileID: 11400000, guid: 74a543e31cbe0b841a6871d7588876c3, type: 2}
  - m_RefCount: 1
    m_Data: {fileID: 11400000, guid: dabe4e79c435e2b4e8185882ea9c3e26, type: 2}
  - m_RefCount: 1
    m_Data: {fileID: 11400000, guid: 16593e350cda6054aaf06348a1d1c3f8, type: 2}
  - m_RefCount: 1
    m_Data: {fileID: 11400000, guid: d0a8485ff157de848ae2aafe50fcc567, type: 2}
  - m_RefCount: 1
    m_Data: {fileID: 11400000, guid: ce234a83624e1e34aa46acd746897e14, type: 2}
  - m_RefCount: 1
    m_Data: {fileID: 11400000, guid: f73d72bec536e6b45bb1bc3db2ad068f, type: 2}
  - m_RefCount: 1
    m_Data: {fileID: 11400000, guid: dd16e27143638eb4daae08e0cf599ed3, type: 2}
  - m_RefCount: 1
    m_Data: {fileID: 11400000, guid: 324a41278f8c82f4b9140a639989c486, type: 2}
  - m_RefCount: 1
    m_Data: {fileID: 11400000, guid: d35068dd7d663ba449ab43c9a0e2be79, type: 2}
  - m_RefCount: 1
    m_Data: {fileID: 11400000, guid: 60b03a4f148c8db49862006432f6fd25, type: 2}
  - m_RefCount: 1
    m_Data: {fileID: 11400000, guid: 8b6669bee23af4d4d81f69c3dc8911e1, type: 2}
  - m_RefCount: 1
    m_Data: {fileID: 11400000, guid: 8dbce82d61df1ec4c9d5a4e850803fd3, type: 2}
  - m_RefCount: 1
    m_Data: {fileID: 11400000, guid: 95e537df58a794d4e84e6e8a497e93bf, type: 2}
  - m_RefCount: 1
    m_Data: {fileID: 11400000, guid: ff402a11299740f44a9124cb75ef4a9c, type: 2}
  - m_RefCount: 1
    m_Data: {fileID: 11400000, guid: 1733a3413327a1b488d05a306748ec75, type: 2}
  - m_RefCount: 1
    m_Data: {fileID: 11400000, guid: 49d9ac3494da22d46ab23b426df82973, type: 2}
  - m_RefCount: 1
    m_Data: {fileID: 11400000, guid: 41fc22495587af9478037aede696d90e, type: 2}
  - m_RefCount: 1
    m_Data: {fileID: 11400000, guid: 56ba2bff05e3e4248bbbd5e40f88cc77, type: 2}
  - m_RefCount: 1
    m_Data: {fileID: 11400000, guid: c6068e40311aa5244b6fa9999e0affa5, type: 2}
  - m_RefCount: 1
    m_Data: {fileID: 11400000, guid: 109279992853ba4488cfdf49cdf78832, type: 2}
  - m_RefCount: 1
    m_Data: {fileID: 11400000, guid: ea437fbc1d954f24c8f3bca3e58bacc5, type: 2}
  - m_RefCount: 1
    m_Data: {fileID: 11400000, guid: d55f2db72831bca45b4eb2e3b92d7bbe, type: 2}
  - m_RefCount: 1
    m_Data: {fileID: 11400000, guid: 05ed98d5cdc471241a6c6cc334205d0e, type: 2}
  - m_RefCount: 1
    m_Data: {fileID: 11400000, guid: 50efc2e42ae9a944eb80b40cad495f77, type: 2}
  - m_RefCount: 1
    m_Data: {fileID: 11400000, guid: 7e86f2a3e0629ec4d94c2b459615d3a8, type: 2}
  - m_RefCount: 1
    m_Data: {fileID: 11400000, guid: 77d0ea817aeadda4a849a7d3d1e3372b, type: 2}
  - m_RefCount: 1
    m_Data: {fileID: 11400000, guid: 1ff8bd7a7295afd419a2b529c91a961e, type: 2}
  - m_RefCount: 1
    m_Data: {fileID: 11400000, guid: c8dff91cd1e73ec4798959312013d5d1, type: 2}
  - m_RefCount: 1
    m_Data: {fileID: 11400000, guid: 4a15b8b0ec34ce244b24dfdacbae62a9, type: 2}
  - m_RefCount: 1
    m_Data: {fileID: 11400000, guid: 71acd3d071b361540aee449cbb07842d, type: 2}
  - m_RefCount: 1
    m_Data: {fileID: 11400000, guid: 757686dcff7310744a8e6b2ea3aea826, type: 2}
  - m_RefCount: 1
    m_Data: {fileID: 11400000, guid: f6551878ceea6c44c95cbd98243e0b71, type: 2}
  - m_RefCount: 1
    m_Data: {fileID: 11400000, guid: b04e8c3f448bc0446a8ffa7537b65820, type: 2}
  - m_RefCount: 1
    m_Data: {fileID: 11400000, guid: 34c8061a51ef1574cb5acc5bf9a9b09f, type: 2}
  - m_RefCount: 1
    m_Data: {fileID: 11400000, guid: ecb12194845259842b802cdf5bee7508, type: 2}
  - m_RefCount: 1
    m_Data: {fileID: 11400000, guid: 4c051ca666f5c6b42b4af44241acfb84, type: 2}
  - m_RefCount: 1
    m_Data: {fileID: 11400000, guid: 890f46ffbdf0084479abe830096688b2, type: 2}
  - m_RefCount: 1
    m_Data: {fileID: 11400000, guid: 7989d2cc5ef1b004a85738ba4b17f96b, type: 2}
  - m_RefCount: 1
    m_Data: {fileID: 11400000, guid: 7cfdfa9024457c14fb29fa2da68cd247, type: 2}
  - m_RefCount: 1
    m_Data: {fileID: 11400000, guid: 5686803864f2e6d44b60248f7d186007, type: 2}
  - m_RefCount: 1
    m_Data: {fileID: 11400000, guid: a50e8ec105e7e1e418fb93ee1bd7479a, type: 2}
  - m_RefCount: 1
    m_Data: {fileID: 11400000, guid: 25b6a917e26af0f42ba04fc66c723c5f, type: 2}
  - m_RefCount: 1
    m_Data: {fileID: 11400000, guid: 3bf5e82a125e1454b8aff70eac4609a3, type: 2}
  - m_RefCount: 1
    m_Data: {fileID: 11400000, guid: e18ca564239435d43b7e9155889cd3ee, type: 2}
  - m_RefCount: 1
    m_Data: {fileID: 11400000, guid: e2cd86c8b552d4a4fa1d472880d765bc, type: 2}
  - m_RefCount: 1
    m_Data: {fileID: 11400000, guid: f75b95a181409f149bce610d9b82af28, type: 2}
  - m_RefCount: 1
    m_Data: {fileID: 11400000, guid: 5a01085187b11ab44a52fb74ecf6d400, type: 2}
  - m_RefCount: 1
    m_Data: {fileID: 11400000, guid: 69b1a54b57355db43925eafb1693dec8, type: 2}
  - m_RefCount: 1
    m_Data: {fileID: 11400000, guid: 21ae9f044c3ef9d40bd4528d571e956f, type: 2}
  - m_RefCount: 1
    m_Data: {fileID: 11400000, guid: 540d5ea33beda4340b69512c8c45f9cd, type: 2}
  - m_RefCount: 1
    m_Data: {fileID: 11400000, guid: 9178b6bafa682474da40c4fc3145badf, type: 2}
  - m_RefCount: 1
    m_Data: {fileID: 11400000, guid: e11ba779b2291c7499183c7edbeeed19, type: 2}
  - m_RefCount: 1
    m_Data: {fileID: 11400000, guid: 2961e304c11e63f4fb06f9bcf546e420, type: 2}
  - m_RefCount: 1
    m_Data: {fileID: 11400000, guid: 689a13e39c168d64591129abf18ee087, type: 2}
  - m_RefCount: 1
    m_Data: {fileID: 11400000, guid: 8b4c928c53ff32540ab4880349c06255, type: 2}
  - m_RefCount: 1
    m_Data: {fileID: 11400000, guid: 006d051dc65a31e40ae228a5110b6429, type: 2}
  - m_RefCount: 1
    m_Data: {fileID: 11400000, guid: 20455653a09a7f6488b18d3e700772b3, type: 2}
  - m_RefCount: 1
    m_Data: {fileID: 11400000, guid: 4ca046531b85726408b2d3ab0b2af837, type: 2}
  - m_RefCount: 1
    m_Data: {fileID: 11400000, guid: fd20e8992cbf94046abf55ed55b87870, type: 2}
  - m_RefCount: 1
    m_Data: {fileID: 11400000, guid: 54faf2d226ca3f340b305a0cd638f90a, type: 2}
  - m_RefCount: 1
    m_Data: {fileID: 11400000, guid: 60c50713bf1ab15418d8e45c708a6013, type: 2}
  - m_RefCount: 1
    m_Data: {fileID: 11400000, guid: 115239f5475a76747a7c80e8494e5255, type: 2}
  - m_RefCount: 1
    m_Data: {fileID: 11400000, guid: 47d9efb1c5103044297c9dd3ab8458dd, type: 2}
  - m_RefCount: 0
    m_Data: {fileID: 0}
  - m_RefCount: 0
    m_Data: {fileID: 0}
  - m_RefCount: 0
    m_Data: {fileID: 0}
  m_TileSpriteArray:
  - m_RefCount: 1
    m_Data: {fileID: 300540353, guid: 536dbcb78d212234d8dc69286c2a011a, type: 3}
  - m_RefCount: 1
    m_Data: {fileID: 1403227276, guid: 536dbcb78d212234d8dc69286c2a011a, type: 3}
  - m_RefCount: 1
    m_Data: {fileID: -1817441982, guid: 536dbcb78d212234d8dc69286c2a011a, type: 3}
  - m_RefCount: 1
    m_Data: {fileID: -1065690104, guid: 536dbcb78d212234d8dc69286c2a011a, type: 3}
  - m_RefCount: 1
    m_Data: {fileID: -1744125212, guid: 536dbcb78d212234d8dc69286c2a011a, type: 3}
  - m_RefCount: 1
    m_Data: {fileID: -337170748, guid: 536dbcb78d212234d8dc69286c2a011a, type: 3}
  - m_RefCount: 1
    m_Data: {fileID: -246246478, guid: 536dbcb78d212234d8dc69286c2a011a, type: 3}
  - m_RefCount: 1
    m_Data: {fileID: -1575575049, guid: 536dbcb78d212234d8dc69286c2a011a, type: 3}
  - m_RefCount: 1
    m_Data: {fileID: 682986419, guid: 536dbcb78d212234d8dc69286c2a011a, type: 3}
  - m_RefCount: 1
    m_Data: {fileID: 1789171049, guid: 536dbcb78d212234d8dc69286c2a011a, type: 3}
  - m_RefCount: 1
    m_Data: {fileID: 143357233, guid: 536dbcb78d212234d8dc69286c2a011a, type: 3}
  - m_RefCount: 1
    m_Data: {fileID: -1574498772, guid: 536dbcb78d212234d8dc69286c2a011a, type: 3}
  - m_RefCount: 1
    m_Data: {fileID: 1846818878, guid: 536dbcb78d212234d8dc69286c2a011a, type: 3}
  - m_RefCount: 1
    m_Data: {fileID: 1508297541, guid: 536dbcb78d212234d8dc69286c2a011a, type: 3}
  - m_RefCount: 1
    m_Data: {fileID: 120731203, guid: 536dbcb78d212234d8dc69286c2a011a, type: 3}
  - m_RefCount: 1
    m_Data: {fileID: 481432216, guid: 536dbcb78d212234d8dc69286c2a011a, type: 3}
  - m_RefCount: 1
    m_Data: {fileID: 501505669, guid: 536dbcb78d212234d8dc69286c2a011a, type: 3}
  - m_RefCount: 1
    m_Data: {fileID: 286447337, guid: 536dbcb78d212234d8dc69286c2a011a, type: 3}
  - m_RefCount: 1
    m_Data: {fileID: 1416401098, guid: 536dbcb78d212234d8dc69286c2a011a, type: 3}
  - m_RefCount: 1
    m_Data: {fileID: 716454652, guid: 536dbcb78d212234d8dc69286c2a011a, type: 3}
  - m_RefCount: 1
    m_Data: {fileID: 39161050, guid: 536dbcb78d212234d8dc69286c2a011a, type: 3}
  - m_RefCount: 1
    m_Data: {fileID: 717748881, guid: 536dbcb78d212234d8dc69286c2a011a, type: 3}
  - m_RefCount: 1
    m_Data: {fileID: -120224449, guid: 536dbcb78d212234d8dc69286c2a011a, type: 3}
  - m_RefCount: 1
    m_Data: {fileID: 142400180, guid: 536dbcb78d212234d8dc69286c2a011a, type: 3}
  - m_RefCount: 1
    m_Data: {fileID: 1244974708, guid: 536dbcb78d212234d8dc69286c2a011a, type: 3}
  - m_RefCount: 1
    m_Data: {fileID: -1071068588, guid: 536dbcb78d212234d8dc69286c2a011a, type: 3}
  - m_RefCount: 1
    m_Data: {fileID: 457294548, guid: 536dbcb78d212234d8dc69286c2a011a, type: 3}
  - m_RefCount: 1
    m_Data: {fileID: -854501200, guid: 536dbcb78d212234d8dc69286c2a011a, type: 3}
  - m_RefCount: 1
    m_Data: {fileID: -1595604287, guid: 536dbcb78d212234d8dc69286c2a011a, type: 3}
  - m_RefCount: 1
    m_Data: {fileID: -2036266797, guid: 536dbcb78d212234d8dc69286c2a011a, type: 3}
  - m_RefCount: 1
    m_Data: {fileID: 389578133, guid: 536dbcb78d212234d8dc69286c2a011a, type: 3}
  - m_RefCount: 1
    m_Data: {fileID: 1337716294, guid: 536dbcb78d212234d8dc69286c2a011a, type: 3}
  - m_RefCount: 1
    m_Data: {fileID: 301695278, guid: 536dbcb78d212234d8dc69286c2a011a, type: 3}
  - m_RefCount: 1
    m_Data: {fileID: 1131144770, guid: 536dbcb78d212234d8dc69286c2a011a, type: 3}
  - m_RefCount: 1
    m_Data: {fileID: -459938315, guid: 536dbcb78d212234d8dc69286c2a011a, type: 3}
  - m_RefCount: 1
    m_Data: {fileID: -1660965966, guid: 536dbcb78d212234d8dc69286c2a011a, type: 3}
  - m_RefCount: 1
    m_Data: {fileID: 1568469885, guid: 536dbcb78d212234d8dc69286c2a011a, type: 3}
  - m_RefCount: 1
    m_Data: {fileID: 212787204, guid: 536dbcb78d212234d8dc69286c2a011a, type: 3}
  - m_RefCount: 1
    m_Data: {fileID: 1425726374, guid: 536dbcb78d212234d8dc69286c2a011a, type: 3}
  - m_RefCount: 1
    m_Data: {fileID: -337714502, guid: 536dbcb78d212234d8dc69286c2a011a, type: 3}
  - m_RefCount: 1
    m_Data: {fileID: 1806659803, guid: 536dbcb78d212234d8dc69286c2a011a, type: 3}
  - m_RefCount: 1
    m_Data: {fileID: -608282025, guid: 536dbcb78d212234d8dc69286c2a011a, type: 3}
  - m_RefCount: 1
    m_Data: {fileID: 1669087809, guid: 536dbcb78d212234d8dc69286c2a011a, type: 3}
  - m_RefCount: 1
    m_Data: {fileID: 105503862, guid: 536dbcb78d212234d8dc69286c2a011a, type: 3}
  - m_RefCount: 1
    m_Data: {fileID: -2085956254, guid: 536dbcb78d212234d8dc69286c2a011a, type: 3}
  - m_RefCount: 1
    m_Data: {fileID: -220708323, guid: 536dbcb78d212234d8dc69286c2a011a, type: 3}
  - m_RefCount: 1
    m_Data: {fileID: 996975511, guid: 536dbcb78d212234d8dc69286c2a011a, type: 3}
  - m_RefCount: 1
    m_Data: {fileID: -1641127978, guid: 536dbcb78d212234d8dc69286c2a011a, type: 3}
  - m_RefCount: 1
    m_Data: {fileID: -443387273, guid: 536dbcb78d212234d8dc69286c2a011a, type: 3}
  - m_RefCount: 1
    m_Data: {fileID: 969290869, guid: 536dbcb78d212234d8dc69286c2a011a, type: 3}
  - m_RefCount: 1
    m_Data: {fileID: -62451056, guid: 536dbcb78d212234d8dc69286c2a011a, type: 3}
  - m_RefCount: 1
    m_Data: {fileID: 1928671840, guid: 536dbcb78d212234d8dc69286c2a011a, type: 3}
  - m_RefCount: 1
    m_Data: {fileID: 1096379615, guid: 536dbcb78d212234d8dc69286c2a011a, type: 3}
  - m_RefCount: 1
    m_Data: {fileID: 512639366, guid: 536dbcb78d212234d8dc69286c2a011a, type: 3}
  - m_RefCount: 1
    m_Data: {fileID: -1292484145, guid: 536dbcb78d212234d8dc69286c2a011a, type: 3}
  - m_RefCount: 1
    m_Data: {fileID: -946576150, guid: 536dbcb78d212234d8dc69286c2a011a, type: 3}
  - m_RefCount: 1
    m_Data: {fileID: -507600168, guid: 536dbcb78d212234d8dc69286c2a011a, type: 3}
  - m_RefCount: 1
    m_Data: {fileID: 245273531, guid: 536dbcb78d212234d8dc69286c2a011a, type: 3}
  - m_RefCount: 1
    m_Data: {fileID: -2007413614, guid: 536dbcb78d212234d8dc69286c2a011a, type: 3}
  - m_RefCount: 1
    m_Data: {fileID: 1503778135, guid: 536dbcb78d212234d8dc69286c2a011a, type: 3}
  - m_RefCount: 1
    m_Data: {fileID: -1350884468, guid: 536dbcb78d212234d8dc69286c2a011a, type: 3}
  - m_RefCount: 1
    m_Data: {fileID: -1320824092, guid: 536dbcb78d212234d8dc69286c2a011a, type: 3}
  - m_RefCount: 1
    m_Data: {fileID: 1187088982, guid: 536dbcb78d212234d8dc69286c2a011a, type: 3}
  - m_RefCount: 1
    m_Data: {fileID: -1545265158, guid: 536dbcb78d212234d8dc69286c2a011a, type: 3}
  - m_RefCount: 0
    m_Data: {fileID: 0}
  - m_RefCount: 0
    m_Data: {fileID: 0}
  - m_RefCount: 0
    m_Data: {fileID: 0}
  m_TileMatrixArray:
  - m_RefCount: 64
    m_Data:
      e00: 1
      e01: 0
      e02: 0
      e03: 0
      e10: 0
      e11: 1
      e12: 0
      e13: 0
      e20: 0
      e21: 0
      e22: 1
      e23: 0
      e30: 0
      e31: 0
      e32: 0
      e33: 1
  m_TileColorArray:
  - m_RefCount: 64
    m_Data: {r: 1, g: 1, b: 1, a: 1}
  m_TileObjectToInstantiateArray: []
  m_AnimationFrameRate: 1
  m_Color: {r: 1, g: 1, b: 1, a: 1}
  m_Origin: {x: -1, y: -7, z: 0}
  m_Size: {x: 12, y: 8, z: 1}
  m_TileAnchor: {x: 0.5, y: 0.5, z: 0}
  m_TileOrientation: 0
  m_TileOrientationMatrix:
    e00: 1
    e01: 0
    e02: 0
    e03: 0
    e10: 0
    e11: 1
    e12: 0
    e13: 0
    e20: 0
    e21: 0
    e22: 1
    e23: 0
    e30: 0
    e31: 0
    e32: 0
    e33: 1
--- !u!483693784 &1466853683180265967
TilemapRenderer:
  m_ObjectHideFlags: 0
  m_CorrespondingSourceObject: {fileID: 0}
  m_PrefabInstance: {fileID: 0}
  m_PrefabAsset: {fileID: 0}
  m_GameObject: {fileID: 6894762012322711951}
  m_Enabled: 1
  m_CastShadows: 0
  m_ReceiveShadows: 0
  m_DynamicOccludee: 0
  m_StaticShadowCaster: 0
  m_MotionVectors: 1
  m_LightProbeUsage: 0
  m_ReflectionProbeUsage: 0
  m_RayTracingMode: 0
  m_RayTraceProcedural: 0
  m_RenderingLayerMask: 1
  m_RendererPriority: 0
  m_Materials:
  - {fileID: 10754, guid: 0000000000000000f000000000000000, type: 0}
  m_StaticBatchInfo:
    firstSubMesh: 0
    subMeshCount: 0
  m_StaticBatchRoot: {fileID: 0}
  m_ProbeAnchor: {fileID: 0}
  m_LightProbeVolumeOverride: {fileID: 0}
  m_ScaleInLightmap: 1
  m_ReceiveGI: 1
  m_PreserveUVs: 0
  m_IgnoreNormalsForChartDetection: 0
  m_ImportantGI: 0
  m_StitchLightmapSeams: 1
  m_SelectedEditorRenderState: 0
  m_MinimumChartSize: 4
  m_AutoUVMaxDistance: 0.5
  m_AutoUVMaxAngle: 89
  m_LightmapParameters: {fileID: 0}
  m_SortingLayerID: 0
  m_SortingLayer: 0
  m_SortingOrder: 0
  m_ChunkSize: {x: 32, y: 32, z: 32}
  m_ChunkCullingBounds: {x: 0, y: 0, z: 0}
  m_MaxChunkCount: 16
  m_MaxFrameAge: 16
  m_SortOrder: 0
  m_Mode: 0
  m_DetectChunkCullingBounds: 0
  m_MaskInteraction: 0
--- !u!114 &6159649187931162310
MonoBehaviour:
  m_ObjectHideFlags: 0
  m_CorrespondingSourceObject: {fileID: 0}
  m_PrefabInstance: {fileID: 0}
  m_PrefabAsset: {fileID: 0}
  m_GameObject: {fileID: 0}
  m_Enabled: 1
  m_EditorHideFlags: 0
  m_Script: {fileID: 12395, guid: 0000000000000000e000000000000000, type: 0}
  m_Name: Palette Settings
  m_EditorClassIdentifier: 
  cellSizing: 0
  m_TransparencySortMode: 0
  m_TransparencySortAxis: {x: 0, y: 0, z: 1}
