%YAML 1.1
%TAG !u! tag:unity3d.com,2011:
--- !u!74 &7400000
AnimationClip:
  m_ObjectHideFlags: 0
  m_CorrespondingSourceObject: {fileID: 0}
  m_PrefabInstance: {fileID: 0}
  m_PrefabAsset: {fileID: 0}
  m_Name: RunMagoMalo
  serializedVersion: 6
  m_Legacy: 0
  m_Compressed: 0
  m_UseHighQualityCurve: 1
  m_RotationCurves: []
  m_CompressedRotationCurves: []
  m_EulerCurves: []
  m_PositionCurves: []
  m_ScaleCurves: []
  m_FloatCurves: []
  m_PPtrCurves:
  - curve:
    - time: 0
      value: {fileID: 21300000, guid: c5ff217fd424b274cbdad4e6807dfd2e, type: 3}
    - time: 0.1
      value: {fileID: 21300000, guid: c1c4e18c26ced004a8a38a58dda1b47e, type: 3}
    - time: 0.21666667
      value: {fileID: 21300000, guid: 52d7d89b1bfa0d445b0d6bf61fb904f2, type: 3}
    - time: 0.31666666
      value: {fileID: 21300000, guid: a914605ca90f8284ab8a8508f6f0b65c, type: 3}
    - time: 0.41666666
      value: {fileID: 21300000, guid: 047555687403ed94cb3c928580539e65, type: 3}
    - time: 0.53333336
      value: {fileID: 21300000, guid: 5e05bcf86f7fab94693461a2c1d8ccde, type: 3}
    - time: 0.6333333
      value: {fileID: 21300000, guid: 257b6098438e71548a0f139f421329eb, type: 3}
    - time: 0.73333335
      value: {fileID: 21300000, guid: 448c8091b3f1e2d4d8b886c04d4e69cb, type: 3}
    - time: 0.85
      value: {fileID: 21300000, guid: 651b642907c741942916da76c7b3f74d, type: 3}
    - time: 0.95
      value: {fileID: 21300000, guid: 8a6881d37a55def4eb5b957ffee55d0f, type: 3}
    - time: 1.05
      value: {fileID: 21300000, guid: 788715134cf581649854f30da43cc653, type: 3}
    - time: 1.15
      value: {fileID: 21300000, guid: 85bcacc21abde4341b9ffc706858035e, type: 3}
    - time: 1.2666667
      value: {fileID: 21300000, guid: 020e0b07ef436ba46b6081d5a9d542bb, type: 3}
    - time: 1.3666667
      value: {fileID: 21300000, guid: 7c977214451c72d49ab6fb6ae19d0f1b, type: 3}
    - time: 1.4666667
      value: {fileID: 21300000, guid: 40b26497537765845a4999b935466711, type: 3}
    - time: 1.5833334
      value: {fileID: 21300000, guid: b5199bc407dd9474cb508e85805c959e, type: 3}
    - time: 1.6833333
      value: {fileID: 21300000, guid: 8109e3a63e7848c4190a16931b2b9724, type: 3}
    - time: 1.7833333
      value: {fileID: 21300000, guid: 4dcae518cec5f014487cb4da491bb058, type: 3}
    - time: 1.9
      value: {fileID: 21300000, guid: dac8e6b7729e4274b9af5e8160e27ca0, type: 3}
    - time: 2
      value: {fileID: 21300000, guid: 5831a58a3b531e64c8bdd0b45b1253a6, type: 3}
    attribute: m_Sprite
    path: 
    classID: 212
    script: {fileID: 0}
  m_SampleRate: 60
  m_WrapMode: 0
  m_Bounds:
    m_Center: {x: 0, y: 0, z: 0}
    m_Extent: {x: 0, y: 0, z: 0}
  m_ClipBindingConstant:
    genericBindings:
    - serializedVersion: 2
      path: 0
      attribute: 0
      script: {fileID: 0}
      typeID: 212
      customType: 23
      isPPtrCurve: 1
    pptrCurveMapping:
    - {fileID: 21300000, guid: c5ff217fd424b274cbdad4e6807dfd2e, type: 3}
    - {fileID: 21300000, guid: c1c4e18c26ced004a8a38a58dda1b47e, type: 3}
    - {fileID: 21300000, guid: 52d7d89b1bfa0d445b0d6bf61fb904f2, type: 3}
    - {fileID: 21300000, guid: a914605ca90f8284ab8a8508f6f0b65c, type: 3}
    - {fileID: 21300000, guid: 047555687403ed94cb3c928580539e65, type: 3}
    - {fileID: 21300000, guid: 5e05bcf86f7fab94693461a2c1d8ccde, type: 3}
    - {fileID: 21300000, guid: 257b6098438e71548a0f139f421329eb, type: 3}
    - {fileID: 21300000, guid: 448c8091b3f1e2d4d8b886c04d4e69cb, type: 3}
    - {fileID: 21300000, guid: 651b642907c741942916da76c7b3f74d, type: 3}
    - {fileID: 21300000, guid: 8a6881d37a55def4eb5b957ffee55d0f, type: 3}
    - {fileID: 21300000, guid: 788715134cf581649854f30da43cc653, type: 3}
    - {fileID: 21300000, guid: 85bcacc21abde4341b9ffc706858035e, type: 3}
    - {fileID: 21300000, guid: 020e0b07ef436ba46b6081d5a9d542bb, type: 3}
    - {fileID: 21300000, guid: 7c977214451c72d49ab6fb6ae19d0f1b, type: 3}
    - {fileID: 21300000, guid: 40b26497537765845a4999b935466711, type: 3}
    - {fileID: 21300000, guid: b5199bc407dd9474cb508e85805c959e, type: 3}
    - {fileID: 21300000, guid: 8109e3a63e7848c4190a16931b2b9724, type: 3}
    - {fileID: 21300000, guid: 4dcae518cec5f014487cb4da491bb058, type: 3}
    - {fileID: 21300000, guid: dac8e6b7729e4274b9af5e8160e27ca0, type: 3}
    - {fileID: 21300000, guid: 5831a58a3b531e64c8bdd0b45b1253a6, type: 3}
  m_AnimationClipSettings:
    serializedVersion: 2
    m_AdditiveReferencePoseClip: {fileID: 0}
    m_AdditiveReferencePoseTime: 0
    m_StartTime: 0
    m_StopTime: 2.0166667
    m_OrientationOffsetY: 0
    m_Level: 0
    m_CycleOffset: 0
    m_HasAdditiveReferencePose: 0
    m_LoopTime: 1
    m_LoopBlend: 0
    m_LoopBlendOrientation: 0
    m_LoopBlendPositionY: 0
    m_LoopBlendPositionXZ: 0
    m_KeepOriginalOrientation: 0
    m_KeepOriginalPositionY: 1
    m_KeepOriginalPositionXZ: 0
    m_HeightFromFeet: 0
    m_Mirror: 0
  m_EditorCurves: []
  m_EulerEditorCurves: []
  m_HasGenericRootTransform: 0
  m_HasMotionFloatCurves: 0
  m_Events: []
